…
## Examples

``` r
library(skater)
```

### Pedigrees and PLINK .fam files

Read a PLINK-formatted .fam file:

``` r
famfile <- system.file("extdata", "3gens.fam", package="skater", mustWork=TRUE)
fam <- read_fam(famfile)
fam
#> # A tibble: 64 x 6
#>    fid      id                dadid             momid               sex affected
#>    <chr>    <chr>             <chr>             <chr>             <int>    <int>
#>  1 testped1 testped1_g1-b1-s1 0                 0                     1        1
#>  2 testped1 testped1_g1-b1-i1 0                 0                     2        1
#>  3 testped1 testped1_g2-b1-s1 0                 0                     1        1
#>  4 testped1 testped1_g2-b1-i1 testped1_g1-b1-s1 testped1_g1-b1-i1     2        1
#>  5 testped1 testped1_g2-b2-s1 0                 0                     1        1
#>  6 testped1 testped1_g2-b2-i1 testped1_g1-b1-s1 testped1_g1-b1-i1     2        1
#>  7 testped1 testped1_g3-b1-i1 testped1_g2-b1-s1 testped1_g2-b1-i1     2        1
#>  8 testped1 testped1_g3-b2-i1 testped1_g2-b2-s1 testped1_g2-b2-i1     1        1
#>  9 testped2 testped2_g1-b1-s1 0                 0                     2        1
#> 10 testped2 testped2_g1-b1-i1 0                 0                     1        1
#> # … with 54 more rows
```
…
``` r
plot_pedigree(peds$ped, file="3gens.ped.pdf")
```

The `ped2kinpair()` function takes a pedigree object and produces a
pairwise list of relationships with their expected kinship coefficient.

Run on a single family:

``` r
ped2kinpair(peds$ped[[1]])
#> # A tibble: 36 x 3
#>    id1               id2                   k
#>    <chr>             <chr>             <dbl>
#>  1 testped1_g1-b1-s1 testped1_g1-b1-s1 0.5  
#>  2 testped1_g1-b1-i1 testped1_g1-b1-s1 0    
#>  3 testped1_g1-b1-s1 testped1_g2-b1-s1 0    
#>  4 testped1_g1-b1-s1 testped1_g2-b1-i1 0.25 
#>  5 testped1_g1-b1-s1 testped1_g2-b2-s1 0    
#>  6 testped1_g1-b1-s1 testped1_g2-b2-i1 0.25 
#>  7 testped1_g1-b1-s1 testped1_g3-b1-i1 0.125
#>  8 testped1_g1-b1-s1 testped1_g3-b2-i1 0.125
#>  9 testped1_g1-b1-i1 testped1_g1-b1-i1 0.5  
#> 10 testped1_g1-b1-i1 testped1_g2-b1-s1 0    
#> # … with 26 more rows
```

Map over all families:

``` r
kinpairs <- 
  peds %>% 
  dplyr::mutate(pairs=purrr::map(ped, ped2kinpair)) %>% 
  dplyr::select(fid, pairs) %>% 
  tidyr::unnest(cols=pairs)
kinpairs
#> # A tibble: 288 x 4
#>    fid      id1               id2                   k
#>    <chr>    <chr>             <chr>             <dbl>
#>  1 testped1 testped1_g1-b1-s1 testped1_g1-b1-s1 0.5  
#>  2 testped1 testped1_g1-b1-i1 testped1_g1-b1-s1 0    
#>  3 testped1 testped1_g1-b1-s1 testped1_g2-b1-s1 0    
#>  4 testped1 testped1_g1-b1-s1 testped1_g2-b1-i1 0.25 
#>  5 testped1 testped1_g1-b1-s1 testped1_g2-b2-s1 0    
#>  6 testped1 testped1_g1-b1-s1 testped1_g2-b2-i1 0.25 
#>  7 testped1 testped1_g1-b1-s1 testped1_g3-b1-i1 0.125
#>  8 testped1 testped1_g1-b1-s1 testped1_g3-b2-i1 0.125
#>  9 testped1 testped1_g1-b1-i1 testped1_g1-b1-i1 0.5  
#> 10 testped1 testped1_g1-b1-i1 testped1_g2-b1-s1 0    
#> # … with 278 more rows
```
…
Unexported objects `ped1kg` and `ped1kg_unrel` contain [pedigree data
obtained from 1000 Genomes
FTP](http://ftp.1000genomes.ebi.ac.uk/vol1/ftp/release/20130502/integrated_call_samples_v3.20200731.ALL.ped)
for all 2504 individuals with sequencing data, and all individuals
unrelated to anyone else in the data (momid, dadid, siblings,
second\_order, and third\_order all =0). This code gets all the unique
IDs for anyone listed as a mother, father, sibling, child, second order,
or third order relative, *who also has sequencing data*, and removes any
*individual ID* who matches one of these relatives. See
[data-raw/generate\_sysdata.R](data-raw/generate_sysdata.R),
specifically the code that begins with the `relatives <-` assignment.

``` r
skater:::ped1kg
#> # A tibble: 2,504 x 13
#>    fid   id    dadid momid   sex affected population relationship siblings
#>    <chr> <chr> <chr> <chr> <dbl>    <dbl> <chr>      <chr>        <chr>   
#>  1 HG00… HG00… 0     0         1        0 GBR        unrel        0       
#>  2 HG00… HG00… 0     0         2        0 GBR        unrel        0       
#>  3 HG00… HG00… 0     0         2        0 GBR        unrel        0       
#>  4 HG00… HG00… 0     0         2        0 GBR        unrel        0       
#>  5 HG00… HG00… 0     0         1        0 GBR        unrel        0       
#>  6 HG00… HG00… 0     0         2        0 GBR        unrel        0       
#>  7 HG00… HG00… 0     0         1        0 GBR        unrel        0       
#>  8 HG00… HG00… 0     0         1        0 GBR        unrel        0       
#>  9 HG00… HG00… 0     0         2        0 GBR        unrel        0       
#> 10 HG00… HG00… 0     0         1        0 GBR        unrel        0       
#> # … with 2,494 more rows, and 4 more variables: second_order <chr>,
#> #   third_order <chr>, children <chr>, other_comments <chr>
skater:::ped1kg_unrel
#> # A tibble: 2,502 x 13
#>    fid   id    dadid momid   sex affected population relationship siblings
#>    <chr> <chr> <chr> <chr> <dbl>    <dbl> <chr>      <chr>        <chr>   
#>  1 HG00… HG00… 0     0         1        0 GBR        unrel        0       
#>  2 HG00… HG00… 0     0         2        0 GBR        unrel        0       
#>  3 HG00… HG00… 0     0         2        0 GBR        unrel        0       
#>  4 HG00… HG00… 0     0         2        0 GBR        unrel        0       
#>  5 HG00… HG00… 0     0         1        0 GBR        unrel        0       
#>  6 HG00… HG00… 0     0         2        0 GBR        unrel        0       
#>  7 HG00… HG00… 0     0         1        0 GBR        unrel        0       
#>  8 HG00… HG00… 0     0         1        0 GBR        unrel        0       
#>  9 HG00… HG00… 0     0         2        0 GBR        unrel        0       
#> 10 HG00… HG00… 0     0         1        0 GBR        unrel        0       
#> # … with 2,492 more rows, and 4 more variables: second_order <chr>,
#> #   third_order <chr>, children <chr>, other_comments <chr>
```
…
