…
http://faculty.washington.edu/sguy/ibd_relatedness.html

## Examples

``` r
pedsim_fp <- system.file("extdata", "GBR.sim.seg.gz", package="skater", mustWork=TRUE)
pedsim_seg <- read_ibd(pedsim_fp, source = "pedsim")
gmapfile <- system.file("extdata", "sexspec-avg-min.plink.map", package="skater", mustWork=TRUE)
gmap <- read_map(gmapfile)
ibd1_dat <- ibd2kin(.ibd_data=pedsim_seg$IBD1, .map=gmap, type="IBD1")
ibd2_dat <- ibd2kin(.ibd_data=pedsim_seg$IBD2, .map=gmap, type="IBD2")
dplyr::bind_rows(ibd1_dat,ibd2_dat) %>%
  dplyr::group_by(id1,id2) %>%
  dplyr::summarise(kinship = sum(kinship), .groups = "drop")
#> # A tibble: 48 × 3
#>    id1               id2               kinship
#>    <chr>             <chr>               <dbl>
#>  1 testped1_g1-b1-i1 testped1_g2-b1-i1   0.245
#>  2 testped1_g1-b1-i1 testped1_g2-b2-i1   0.245
#>  3 testped1_g1-b1-i1 testped1_g3-b1-i1   0.136
#>  4 testped1_g1-b1-i1 testped1_g3-b2-i1   0.124
#>  5 testped1_g1-b1-s1 testped1_g2-b1-i1   0.245
#>  6 testped1_g1-b1-s1 testped1_g2-b2-i1   0.245
#>  7 testped1_g1-b1-s1 testped1_g3-b1-i1   0.109
#>  8 testped1_g1-b1-s1 testped1_g3-b2-i1   0.121
#>  9 testped1_g2-b1-i1 testped1_g2-b2-i1   0.254
#> 10 testped1_g2-b1-i1 testped1_g3-b1-i1   0.245
#> # ℹ 38 more rows
```
