Basic Usage • skater
…
Pedigree parsing and manipulation

Pedigrees define familial relationships in a hierarchical
structure.

One of the formats used by PLINK and other genetic analysis tools is
the .fam file.1 A .fam file is a tabular
format with one row per individual and columns for unique IDs of the
mother, father, and the family unit. The package includes
read_fam() to read files in this format:

famfile <- system.file("extdata", "3gens.fam", package="skater", mustWork=TRUE)
fam <- read_fam(famfile)
fam
# # A tibble: 64 × 6
#    fid      id                dadid             momid               sex affected
#    <chr>    <chr>             <chr>             <chr>             <int>    <int>
#  1 testped1 testped1_g1-b1-s1 0                 0                     1        1
#  2 testped1 testped1_g1-b1-i1 0                 0                     2        1
#  3 testped1 testped1_g2-b1-s1 0                 0                     1        1
#  4 testped1 testped1_g2-b1-i1 testped1_g1-b1-s1 testped1_g1-b1-i1     2        1
#  5 testped1 testped1_g2-b2-s1 0                 0                     1        1
#  6 testped1 testped1_g2-b2-i1 testped1_g1-b1-s1 testped1_g1-b1-i1     2        1
#  7 testped1 testped1_g3-b1-i1 testped1_g2-b1-s1 testped1_g2-b1-i1     2        1
#  8 testped1 testped1_g3-b2-i1 testped1_g2-b2-s1 testped1_g2-b2-i1     1        1
#  9 testped2 testped2_g1-b1-s1 0                 0                     2        1
# 10 testped2 testped2_g1-b1-i1 0                 0                     1        1
# # … with 54 more rows
…
The plot_pedigree() function from skater
will iterate over a list of pedigree objects, writing a multi-page PDF,
with each page containing a pedigree from family:

plot_pedigree(peds$ped, file="3gens.ped.pdf")

The ped2kinpair() function takes a pedigree object and
produces a pairwise list of relationships between all individuals in the
data with the expected kinship coefficients for each pair.

The function can be run on a single family:

ped2kinpair(peds$ped[[1]])
# # A tibble: 36 × 3
#    id1               id2                   k
#    <chr>             <chr>             <dbl>
#  1 testped1_g1-b1-s1 testped1_g1-b1-s1 0.5  
#  2 testped1_g1-b1-i1 testped1_g1-b1-s1 0    
#  3 testped1_g1-b1-s1 testped1_g2-b1-s1 0    
#  4 testped1_g1-b1-s1 testped1_g2-b1-i1 0.25 
#  5 testped1_g1-b1-s1 testped1_g2-b2-s1 0    
#  6 testped1_g1-b1-s1 testped1_g2-b2-i1 0.25 
#  7 testped1_g1-b1-s1 testped1_g3-b1-i1 0.125
#  8 testped1_g1-b1-s1 testped1_g3-b2-i1 0.125
#  9 testped1_g1-b1-i1 testped1_g1-b1-i1 0.5  
# 10 testped1_g1-b1-i1 testped1_g2-b1-s1 0    
# # … with 26 more rows

Or mapped over all families in the pedigree

kinpairs <- 
  peds %>% 
  dplyr::mutate(pairs=purrr::map(ped, ped2kinpair)) %>% 
  dplyr::select(fid, pairs) %>% 
  tidyr::unnest(cols=pairs)
kinpairs
# # A tibble: 288 × 4
#    fid      id1               id2                   k
#    <chr>    <chr>             <chr>             <dbl>
#  1 testped1 testped1_g1-b1-s1 testped1_g1-b1-s1 0.5  
#  2 testped1 testped1_g1-b1-i1 testped1_g1-b1-s1 0    
#  3 testped1 testped1_g1-b1-s1 testped1_g2-b1-s1 0    
#  4 testped1 testped1_g1-b1-s1 testped1_g2-b1-i1 0.25 
#  5 testped1 testped1_g1-b1-s1 testped1_g2-b2-s1 0    
#  6 testped1 testped1_g1-b1-s1 testped1_g2-b2-i1 0.25 
#  7 testped1 testped1_g1-b1-s1 testped1_g3-b1-i1 0.125
#  8 testped1 testped1_g1-b1-s1 testped1_g3-b2-i1 0.125
#  9 testped1 testped1_g1-b1-i1 testped1_g1-b1-i1 0.5  
# 10 testped1 testped1_g1-b1-i1 testped1_g2-b1-s1 0    
# # … with 278 more rows
…
To illustrate the usage, first take the kinpairs data
from above and randomly flip ~20% of the true relationship degrees.

# Function to randomly flip levels of a factor (at 20%, by default)
randomflip <- function(x, p=.2) ifelse(runif(length(x))<p, sample(unique(x)), x)

# Infer degree (truth/target) using kin2degree, then randomly flip 20% of them
set.seed(42)
kinpairs_inferred <- kinpairs %>% 
  dplyr::mutate(degree_truth=kin2degree(k, max_degree=3)) %>% 
  dplyr::mutate(degree_truth=as.character(degree_truth)) %>%
  dplyr::mutate(degree_truth=tidyr::replace_na(degree_truth, "unrelated")) %>% 
  dplyr::mutate(degree_inferred=randomflip(degree_truth))
kinpairs_inferred
# # A tibble: 288 × 6
#    fid      id1               id2                   k degree_truth degree_infe…¹
#    <chr>    <chr>             <chr>             <dbl> <chr>        <chr>        
#  1 testped1 testped1_g1-b1-s1 testped1_g1-b1-s1 0.5   0            0            
#  2 testped1 testped1_g1-b1-i1 testped1_g1-b1-s1 0     unrelated    unrelated    
#  3 testped1 testped1_g1-b1-s1 testped1_g2-b1-s1 0     unrelated    unrelated    
#  4 testped1 testped1_g1-b1-s1 testped1_g2-b1-i1 0.25  1            1            
#  5 testped1 testped1_g1-b1-s1 testped1_g2-b2-s1 0     unrelated    unrelated    
#  6 testped1 testped1_g1-b1-s1 testped1_g2-b2-i1 0.25  1            1            
#  7 testped1 testped1_g1-b1-s1 testped1_g3-b1-i1 0.125 2            2            
#  8 testped1 testped1_g1-b1-s1 testped1_g3-b2-i1 0.125 2            1            
#  9 testped1 testped1_g1-b1-i1 testped1_g1-b1-i1 0.5   0            0            
# 10 testped1 testped1_g1-b1-i1 testped1_g2-b1-s1 0     unrelated    unrelated    
# # … with 278 more rows, and abbreviated variable name ¹​degree_inferred
…
The read_ibd() function reads in the pairwise IBD
segment format. Input to this function can either be inferred IBD
segments from hap-IBD (source="hapibd") or simulated
segments (source="pedsim"). The first example below uses
data in the hap-ibd output format:

hapibd_fp <- system.file("extdata", "GBR.sim.ibd.gz", package="skater", mustWork=TRUE)
hapibd_seg <- read_ibd(hapibd_fp, source = "hapibd")
# New names:
# • `1` -> `1...2`
# • `1` -> `1...4`
# • `1` -> `1...5`
hapibd_seg
# # A tibble: 3,954 × 6
#    id1               id2                 chr     start       end length
#    <chr>             <chr>             <dbl>     <dbl>     <dbl>  <dbl>
#  1 testped1_g1-b1-s1 testped1_g3-b1-i1     1 197661576 234863602   47.1
#  2 testped1_g2-b2-i1 testped1_g3-b1-i1     1 197661576 231017545   39.8
#  3 testped1_g3-b1-i1 testped1_g3-b2-i1     1 197661576 212799139   20.3
#  4 testped3_g1-b1-s1 testped3_g3-b2-i1     1   2352146  10862397   17.7
#  5 testped3_g2-b2-i1 testped3_g3-b2-i1     1   2352146  10862397   17.7
#  6 testped1_g1-b1-s1 testped1_g2-b1-i1     1   3328659  64123868   86.4
#  7 testped1_g1-b1-s1 testped1_g3-b1-i1     1   3328659  33476811   51.2
#  8 testped1_g2-b2-s1 testped1_g3-b2-i1     1   5003504  32315147   45.9
#  9 testped2_g1-b1-i1 testped2_g3-b1-i1     1 240810528 248578622   15.9
# 10 testped2_g1-b1-i1 testped2_g2-b2-i1     1 241186056 249170711   15.5
# # … with 3,944 more rows

In order to translate the shared genomic cM length to a kinship
coefficient, you must load a genetic map with read_map().
Software for IBD segment inference and simulation requires a genetic
map. The map loaded for kinship estimation should be the same one used
for creating the shared IBD segment output. The example below uses a
minimal genetic map created with min_map7 that ships with
skater:

gmapfile <- system.file("extdata", "sexspec-avg-min.plink.map", package="skater", mustWork=TRUE)
gmap <- read_map(gmapfile)
gmap
# # A tibble: 28,726 × 3
#      chr  value      bp
#    <dbl>  <dbl>   <dbl>
#  1     1 0       752721
#  2     1 0.0292 1066029
#  3     1 0.0829 1099342
#  4     1 0.157  1106473
#  5     1 0.246  1152631
#  6     1 0.294  1314015
#  7     1 0.469  1510801
#  8     1 0.991  1612540
#  9     1 1.12   1892325
# 10     1 1.41   1916587
# # … with 28,716 more rows

The ibd2kin() function takes the segments and map file
and outputs a tibble with one row per pair of individuals
and columns for individual 1 ID, individual 2 ID, and the kinship
coefficient for the pair:

ibd_dat <- ibd2kin(.ibd_data=hapibd_seg, .map=gmap)
ibd_dat
# # A tibble: 196 × 3
#    id1               id2                kinship
#    <chr>             <chr>                <dbl>
#  1 testped1_g1-b1-i1 testped1_g1-b1-s1 0.000316
#  2 testped1_g1-b1-i1 testped1_g2-b1-i1 0.261   
#  3 testped1_g1-b1-i1 testped1_g2-b2-i1 0.263   
#  4 testped1_g1-b1-i1 testped1_g2-b2-s1 0.000150
#  5 testped1_g1-b1-i1 testped1_g3-b1-i1 0.145   
#  6 testped1_g1-b1-i1 testped1_g3-b2-i1 0.133   
#  7 testped1_g1-b1-i1 testped2_g1-b1-i1 0.000165
#  8 testped1_g1-b1-i1 testped2_g1-b1-s1 0.000323
#  9 testped1_g1-b1-i1 testped2_g2-b1-i1 0.000499
# 10 testped1_g1-b1-i1 testped2_g2-b1-s1 0.000318
# # … with 186 more rows

As noted above, the IBD segment kinship estimation can be performed
on simulated segments. The package includes an example of IBD data in
that format:

pedsim_fp <- system.file("extdata", "GBR.sim.seg.gz", package="skater", mustWork=TRUE)
pedsim_seg <- read_ibd(pedsim_fp, source = "pedsim")
pedsim_seg
# $IBD1
# # A tibble: 1,553 × 6
#    id1               id2               chr    start       end length
#    <chr>             <chr>             <chr>  <int>     <int>  <dbl>
#  1 testped1_g1-b1-s1 testped1_g2-b1-i1 1     752721 249170711   262.
#  2 testped1_g1-b1-s1 testped1_g2-b1-i1 2     118913 243043959   249.
#  3 testped1_g1-b1-s1 testped1_g2-b1-i1 3     108226 197800244   217.
#  4 testped1_g1-b1-s1 testped1_g2-b1-i1 4     167596 190936728   200.
#  5 testped1_g1-b1-s1 testped1_g2-b1-i1 5     157856 180692833   196.
#  6 testped1_g1-b1-s1 testped1_g2-b1-i1 6     183917 170981684   184.
#  7 testped1_g1-b1-s1 testped1_g2-b1-i1 7      46239 159119486   176.
#  8 testped1_g1-b1-s1 testped1_g2-b1-i1 8     113565 146280471   160.
#  9 testped1_g1-b1-s1 testped1_g2-b1-i1 9     212908 141027939   154.
# 10 testped1_g1-b1-s1 testped1_g2-b1-i1 10    158946 135473442   166.
# # … with 1,543 more rows
# 
# $IBD2
# # A tibble: 132 × 6
#    id1               id2               chr       start       end length
#    <chr>             <chr>             <chr>     <int>     <int>  <dbl>
#  1 testped1_g2-b1-i1 testped1_g2-b2-i1 1     156666011 162443758  9.43 
#  2 testped1_g2-b1-i1 testped1_g2-b2-i1 1     197638290 213685761 20.5  
#  3 testped1_g2-b1-i1 testped1_g2-b2-i1 1     243586697 249170711  9.43 
#  4 testped1_g2-b1-i1 testped1_g2-b2-i1 2      40779973  67697179 25.7  
#  5 testped1_g2-b1-i1 testped1_g2-b2-i1 3      26902677  27840868  0.797
#  6 testped1_g2-b1-i1 testped1_g2-b2-i1 3     186680562 192093520 12.1  
#  7 testped1_g2-b1-i1 testped1_g2-b2-i1 4      81060970 100337853 16.7  
#  8 testped1_g2-b1-i1 testped1_g2-b2-i1 5      24009109  30217553  4.83 
#  9 testped1_g2-b1-i1 testped1_g2-b2-i1 5      31751157 134562539 83.7  
# 10 testped1_g2-b1-i1 testped1_g2-b2-i1 5     167835827 168425497  1.15 
# # … with 122 more rows

Notably, ped-sim differentiates IBD1 and IBD2 segments.
Given that IBD1 and IBD2 segments are weighted differently in kinship
calculation, this should be accounted for in processing. In the example
below the shared IBD is calculated separately for IBD1 and IBD2 with
type="IBD1" and type="IBD2" respectively. You
can then combine those results and sum the IBD1 and IBD2 kinship
coefficients to get the overall kinship coefficient:

ibd1_dat <- ibd2kin(.ibd_data=pedsim_seg$IBD1, .map=gmap, type="IBD1")
ibd2_dat <- ibd2kin(.ibd_data=pedsim_seg$IBD2, .map=gmap, type="IBD2")
dplyr::bind_rows(ibd1_dat,ibd2_dat) %>%
  dplyr::group_by(id1,id2) %>%
  dplyr::summarise(kinship = sum(kinship), .groups = "drop")
# # A tibble: 48 × 3
#    id1               id2               kinship
#    <chr>             <chr>               <dbl>
#  1 testped1_g1-b1-i1 testped1_g2-b1-i1   0.245
#  2 testped1_g1-b1-i1 testped1_g2-b2-i1   0.245
#  3 testped1_g1-b1-i1 testped1_g3-b1-i1   0.136
#  4 testped1_g1-b1-i1 testped1_g3-b2-i1   0.124
#  5 testped1_g1-b1-s1 testped1_g2-b1-i1   0.245
#  6 testped1_g1-b1-s1 testped1_g2-b2-i1   0.245
#  7 testped1_g1-b1-s1 testped1_g3-b1-i1   0.109
#  8 testped1_g1-b1-s1 testped1_g3-b2-i1   0.121
#  9 testped1_g2-b1-i1 testped1_g2-b2-i1   0.254
# 10 testped1_g2-b1-i1 testped1_g3-b1-i1   0.245
# # … with 38 more rows
…
