Calculate various statistics from a confusion matrix — confusion_matrix • skater
…
#>         2  0 40  0
#>         3  0 10 50
confusion_matrix(prediction, target, longer=TRUE)
#> $Accuracy
#> # A tibble: 5 × 2
#>   Statistic            Value
#>   <chr>                <dbl>
#> 1 Accuracy          9.33e- 1
#> 2 Accuracy LL       8.81e- 1
#> 3 Accuracy UL       9.68e- 1
#> 4 Accuracy Guessing 3.33e- 1
#> 5 Accuracy P-value  3.36e-54
#> 
#> $Other
#> # A tibble: 56 × 3
#>    Class Statistic               Value
#>    <chr> <chr>                   <dbl>
#>  1 1     N                      50    
#>  2 1     Sensitivity/Recall/TPR  1    
#>  3 1     Specificity/TNR         1    
#>  4 1     PPV/Precision           1    
#>  5 1     NPV                     1    
#>  6 1     F1/Dice                 1    
#>  7 1     Prevalence              0.333
#>  8 1     Detection Rate          0.333
#>  9 1     Detection Prevalence    0.333
#> 10 1     Balanced Accuracy       1    
#> # … with 46 more rows
…
