Read PLINK KING table — read_plink2_king • skater
…
    Value

A tibble containing the 6 columns from the plink2 --make-king-table output.

    References

    https://www.cog-genomics.org/plink/2.0/distance#make_king

    Examples

plink2kingFile <- system.file("extdata", "plink2-king-table.tsv", package="skater", mustWork=TRUE)
plink2king <- read_plink2_king(plink2kingFile)
plink2king
#> # A tibble: 45 × 6
#>    id1      id2       nsnps hethet   ibd0         k
#>    <chr>    <chr>     <int>  <dbl>  <dbl>     <dbl>
#>  1 g1-b1-i1 g1-b1-s1 590330 0.0639 0.0326 -0.0115  
#>  2 g1-b1-s1 g2-b1-s1 590330 0.0649 0.0324 -0.00387 
#>  3 g1-b1-i1 g2-b1-s1 590330 0.0628 0.0332 -0.0140  
#>  4 g1-b1-s1 g2-b1-s2 590330 0.0649 0.0325 -0.000565
#>  5 g1-b1-i1 g2-b1-s2 590330 0.0631 0.0334 -0.0182  
#>  6 g2-b1-s1 g2-b1-s2 590330 0.0643 0.0329 -0.00832 
#>  7 g1-b1-s1 g2-b1-i1 590330 0.0899 0       0.247   
#>  8 g1-b1-i1 g2-b1-i1 590330 0.0875 0       0.244   
#>  9 g2-b1-i1 g2-b1-s1 590330 0.0640 0.0321 -0.000468
#> 10 g2-b1-i1 g2-b1-s2 590330 0.0641 0.0325 -0.00622 
#> # … with 35 more rows
…
